^E:\DOCUMENTS\ENGINE SOURCE CODE\TEMP\BOOTSTRAP\X64\DEBUG\APPLICATION.OBJ|E:\DOCUMENTS\ENGINE SOURCE CODE\TEMP\BOOTSTRAP\X64\DEBUG\FONT.OBJ|E:\DOCUMENTS\ENGINE SOURCE CODE\TEMP\BOOTSTRAP\X64\DEBUG\GIZMOS.OBJ|E:\DOCUMENTS\ENGINE SOURCE CODE\TEMP\BOOTSTRAP\X64\DEBUG\GL_CORE_4_4.OBJ|E:\DOCUMENTS\ENGINE SOURCE CODE\TEMP\BOOTSTRAP\X64\DEBUG\IMGUI.OBJ|E:\DOCUMENTS\ENGINE SOURCE CODE\TEMP\BOOTSTRAP\X64\DEBUG\IMGUI_DRAW.OBJ|E:\DOCUMENTS\ENGINE SOURCE CODE\TEMP\BOOTSTRAP\X64\DEBUG\IMGUI_GLFW3.OBJ|E:\DOCUMENTS\ENGINE SOURCE CODE\TEMP\BOOTSTRAP\X64\DEBUG\INPUT.OBJ|E:\DOCUMENTS\ENGINE SOURCE CODE\TEMP\BOOTSTRAP\X64\DEBUG\RENDERER2D.OBJ|E:\DOCUMENTS\ENGINE SOURCE CODE\TEMP\BOOTSTRAP\X64\DEBUG\TEXTURE.OBJ
C:\PROGRAM FILES (X86)\WINDOWS KITS\10\LIB\10.0.17763.0\UM\X64\OPENGL32.LIB
C:\WINDOWS\SYSTEM32\TZRES.DLL
E:\DOCUMENTS\ENGINE SOURCE CODE\DEPENDENCIES\GLFW\LIB-VC2015\GLFW3.LIB
E:\DOCUMENTS\ENGINE SOURCE CODE\TEMP\BOOTSTRAP\X64\DEBUG\IMGUI.OBJ
E:\DOCUMENTS\ENGINE SOURCE CODE\TEMP\BOOTSTRAP\X64\DEBUG\IMGUI_DRAW.OBJ
E:\DOCUMENTS\ENGINE SOURCE CODE\TEMP\BOOTSTRAP\X64\DEBUG\APPLICATION.OBJ
E:\DOCUMENTS\ENGINE SOURCE CODE\TEMP\BOOTSTRAP\X64\DEBUG\FONT.OBJ
E:\DOCUMENTS\ENGINE SOURCE CODE\TEMP\BOOTSTRAP\X64\DEBUG\GIZMOS.OBJ
E:\DOCUMENTS\ENGINE SOURCE CODE\TEMP\BOOTSTRAP\X64\DEBUG\GL_CORE_4_4.OBJ
E:\DOCUMENTS\ENGINE SOURCE CODE\TEMP\BOOTSTRAP\X64\DEBUG\IMGUI_GLFW3.OBJ
E:\DOCUMENTS\ENGINE SOURCE CODE\TEMP\BOOTSTRAP\X64\DEBUG\INPUT.OBJ
E:\DOCUMENTS\ENGINE SOURCE CODE\TEMP\BOOTSTRAP\X64\DEBUG\RENDERER2D.OBJ
E:\DOCUMENTS\ENGINE SOURCE CODE\TEMP\BOOTSTRAP\X64\DEBUG\TEXTURE.OBJ
C:\WINDOWS\GLOBALIZATION\SORTING\SORTDEFAULT.NLS
